<?xml version="1.0" encoding="utf-8"?>
<!-- Generator: Adobe Illustrator 22.1.0, SVG Export Plug-In . SVG Version: 6.00 Build 0)  -->
<svg version="1.2" baseProfile="tiny" id="Camada_1"
	 xmlns="http://www.w3.org/2000/svg" xmlns:xlink="http://www.w3.org/1999/xlink" x="0px" y="0px" viewBox="0 0 162 34.9"
	 xml:space="preserve">
<g>
	<path fill-rule="evenodd" fill="#58595B" d="M27.6,16.2l0-7.7h3c3,0,5.2,0.7,5,4c-0.2,2.8-2.3,3.8-5.3,3.8L27.6,16.2L27.6,16.2z
		 M52.2,20.2c0-0.9,1.1-4.9,1.4-6l1.3-6.1c0.3,0.2,0.2,0.1,0.3,0.7l0.5,2.3c0.4,1.7,2.1,8.6,2.1,9.2L52.2,20.2L52.2,20.2z M0.9,33.3
		l8.4,0V22.8h7.8l0-6.6l-7.8,0l0-7.7c2.3,0,8.1-0.1,10,0v24.9c2,0,6.7,0.1,8.4,0V22.8l3.2,0l5.4,10.5l12.9,0l1.5-6.7l8.8,0l1.6,6.7
		l8.8,0L60.2,1.9l-10.1,0l-7.8,25.6l-3.6-6.3c1.7-0.7,3.6-2.9,4.4-4.8c0.9-2.3,1-5.5,0.2-8c-1.6-4.9-6.4-6.5-12.5-6.5H0.9V33.3z"/>
	<path fill-rule="evenodd" fill="#58595B" d="M150.6,4.8c3.7-0.6,6.5,2.1,6.9,5.3c0.5,3.7-1.9,6.7-5,7.2c-3.7,0.6-6.3-2.2-6.8-5.3
		C145.1,8.2,147.5,5.3,150.6,4.8L150.6,4.8z M150.5,1.6c-5,0.6-9,4.7-8.4,10.4c0.6,5.1,4.8,9,10.6,8.4c4.9-0.5,8.9-4.9,8.3-10.5
		C160.6,4.9,156.2,1,150.5,1.6z"/>
	<path fill-rule="evenodd" fill="#58595B" d="M73.9,17.2c-0.5,0.2-0.7,0.1-1.3,0.1l0,2.9c4.8,0,4.5,0.6,4.9-4.2
		c0.2-2.9,0.4-5.6,0.5-8.6c0.3,0.7,0.6,1.7,0.9,2.5l3,6.6c0.2,0.4,0.1,0.4,0.4,0.5l2.4,0c0.3-0.2,0.5-0.7,0.6-1
		c0.2-0.4,0.4-0.8,0.5-1.2L88,10c0.4-0.9,0.6-1.7,0.9-2.5l0.5,8.6c0.4,4.7,0.1,4.2,4.8,4.2l0-2.9c-0.5,0-0.8,0.1-1.2-0.2
		c-0.3-0.6-1.2-13.5-1.3-15.3l-3.4,0C87.7,2,83.7,12.6,83.4,13l-2.3-5.6c-0.7-1.7-1.8-3.9-2.4-5.5l-3.6,0
		C75,3.9,74.2,16.1,73.9,17.2z"/>
	<path fill-rule="evenodd" fill="#58595B" d="M95,4.7l1.7,0.1l0,13.2c0,1.8,0.3,2.3,2.1,2.3h7.7c1.1,0,1.8-0.2,2-1.3
		c0.1-0.6,0.1-2.6,0-3.3l-3.1,0c-0.1,2,0.9,1.7-4.6,1.7c-0.6,0-0.8-0.2-0.8-0.8v-4.1l5.9,0l0-2.8l-5.9,0l0-4.7c0.6-0.2,4-0.1,4.6,0
		c0.2,0.4,0.1,1,0.1,1.5c0.8,0.1,2.2,0.1,3.1,0.1c0-5.5,1-4.6-9.2-4.6c-1,0-2.9-0.1-3.7,0L95,4.7z"/>
	<path fill-rule="evenodd" fill="#58595B" d="M140.7,17.4l-1.3-1.8c-0.2-0.3-0.2-0.4-0.5-0.6c-4.4,4.4-10.7,2.4-11.4-3.2
		c-0.4-3.1,1.2-5.6,3.3-6.5c1.2-0.5,2.8-0.7,4.2-0.3c2.1,0.5,2.2,1.3,2.2,2.8l3.1,0c0-2.3,0.3-3.9-2.4-5.2c-1.8-0.9-4.4-1.2-6.6-0.8
		c-8.8,1.8-9.9,14.1-2,17.9c1.9,0.9,4.5,1.1,6.6,0.6c1-0.3,1.9-0.6,2.7-1.1C139.3,18.7,140.3,17.9,140.7,17.4z"/>
	<path fill-rule="evenodd" fill="#58595B" d="M110,4.3l0,0.4c2.2,0,1.7-0.3,1.7,4.3l0,8.8c0,1.8,0.2,2.4,2.1,2.4h7.5
		c1.2,0,1.8-0.2,2-1.3c0.1-0.6,0.1-2.6,0-3.3l-3.1,0c-0.1,2,0.8,1.7-4.4,1.7c-0.7,0-0.8-0.1-0.8-0.8l0-12.5c0-2.6-1.3-2.1-5.1-2.1
		L110,4.3z"/>
	<path fill-rule="evenodd" fill="#58595B" d="M67.6,2.8c3.2-0.8,3.9,4,1.2,4.7C65.6,8.3,64.9,3.5,67.6,2.8L67.6,2.8z M67.6,1.9
		c-4.3,0.9-2.9,7.4,1.5,6.4C73,7.4,71.8,1,67.6,1.9z"/>
	<path fill-rule="evenodd" fill="#58595B" d="M67.9,5.1V4.2h0.3c0.7,0,0.6,0.8,0,0.8H67.9L67.9,5.1z M66.9,6.7h1V5.8l0.5,0
		c0.2,0,0.2,0.4,0.4,0.9l1,0l-0.6-1.2c0.7-0.7,0.7-1.3,0.1-1.7c-0.5-0.3-1.7-0.2-2.4-0.2L66.9,6.7z"/>
</g>
</svg>
